{
  "data": [
    {
      "id": "nk226n",
      "url": "https://wallhaven.cc/w/nk226n",
      "short_url": "https://whvn.cc/nk226n",
      "views": 3270,
      "favorites": 14,
      "source": "",
      "purity": "sfw",
      "category": "people",
      "dimension_x": 1920,
      "dimension_y": 1080,
      "resolution": "1920x1080",
      "ratio": "1.78",
      "file_size": 327449,
      "file_type": "image/jpeg",
      "created_at": "2014-06-17 11:26:00",
      "colors": ["#000000", "#424153", "#999999", "#996633", "#336600"],
      "path": "https://w.wallhaven.cc/full/nk/wallhaven-nk226n.jpg",
      "thumbs": {
        "large": "https://th.wallhaven.cc/lg/nk/nk226n.jpg",
        "original": "https://th.wallhaven.cc/orig/nk/nk226n.jpg",
        "small": "https://th.wallhaven.cc/small/nk/nk226n.jpg"
      }
    },
    {
      "id": "5wx1g9",
      "url": "https://wallhaven.cc/w/5wx1g9",
      "short_url": "https://whvn.cc/5wx1g9",
      "views": 1220,
      "favorites": 2,
      "source": "",
      "purity": "sfw",
      "category": "general",
      "dimension_x": 2133,
      "dimension_y": 1200,
      "resolution": "2133x1200",
      "ratio": "1.78",
      "file_size": 485307,
      "file_type": "image/jpeg",
      "created_at": "2020-07-27 19:24:47",
      "colors": ["#000000", "#424153", "#996633", "#663300", "#336600"],
      "path": "https://w.wallhaven.cc/full/5w/wallhaven-5wx1g9.jpg",
      "thumbs": {
        "large": "https://th.wallhaven.cc/lg/5w/5wx1g9.jpg",
        "original": "https://th.wallhaven.cc/orig/5w/5wx1g9.jpg",
        "small": "https://th.wallhaven.cc/small/5w/5wx1g9.jpg"
      }
    },
    {
      "id": "4lqdyl",
      "url": "https://wallhaven.cc/w/4lqdyl",
      "short_url": "https://whvn.cc/4lqdyl",
      "views": 4262,
      "favorites": 7,
      "source": "",
      "purity": "sfw",
      "category": "general",
      "dimension_x": 1920,
      "dimension_y": 1080,
      "resolution": "1920x1080",
      "ratio": "1.78",
      "file_size": 405236,
      "file_type": "image/jpeg",
      "created_at": "2014-09-14 17:59:16",
      "colors": ["#996633", "#424153", "#999999", "#e7d8b1", "#000000"],
      "path": "https://w.wallhaven.cc/full/4l/wallhaven-4lqdyl.jpg",
      "thumbs": {
        "large": "https://th.wallhaven.cc/lg/4l/4lqdyl.jpg",
        "original": "https://th.wallhaven.cc/orig/4l/4lqdyl.jpg",
        "small": "https://th.wallhaven.cc/small/4l/4lqdyl.jpg"
      }
    },
    {
      "id": "r2xxmj",
      "url": "https://wallhaven.cc/w/r2xxmj",
      "short_url": "https://whvn.cc/r2xxmj",
      "views": 1130,
      "favorites": 7,
      "source": "https://www.flickr.com/photos/paradisecoastie/31018848741",
      "purity": "sfw",
      "category": "general",
      "dimension_x": 1920,
      "dimension_y": 1080,
      "resolution": "1920x1080",
      "ratio": "1.78",
      "file_size": 750848,
      "file_type": "image/jpeg",
      "created_at": "2020-03-16 00:37:27",
      "colors": ["#424153", "#999999", "#abbcda", "#000000", "#663399"],
      "path": "https://w.wallhaven.cc/full/r2/wallhaven-r2xxmj.jpg",
      "thumbs": {
        "large": "https://th.wallhaven.cc/lg/r2/r2xxmj.jpg",
        "original": "https://th.wallhaven.cc/orig/r2/r2xxmj.jpg",
        "small": "https://th.wallhaven.cc/small/r2/r2xxmj.jpg"
      }
    },
    {
      "id": "2ygpdg",
      "url": "https://wallhaven.cc/w/2ygpdg",
      "short_url": "https://whvn.cc/2ygpdg",
      "views": 1781,
      "favorites": 32,
      "source": "",
      "purity": "sfw",
      "category": "anime",
      "dimension_x": 1920,
      "dimension_y": 1080,
      "resolution": "1920x1080",
      "ratio": "1.78",
      "file_size": 640546,
      "file_type": "image/jpeg",
      "created_at": "2022-10-10 18:55:34",
      "colors": ["#424153", "#000000", "#663399", "#999999", "#abbcda"],
      "path": "https://w.wallhaven.cc/full/2y/wallhaven-2ygpdg.jpg",
      "thumbs": {
        "large": "https://th.wallhaven.cc/lg/2y/2ygpdg.jpg",
        "original": "https://th.wallhaven.cc/orig/2y/2ygpdg.jpg",
        "small": "https://th.wallhaven.cc/small/2y/2ygpdg.jpg"
      }
    },
    {
      "id": "0w1xdp",
      "url": "https://wallhaven.cc/w/0w1xdp",
      "short_url": "https://whvn.cc/0w1xdp",
      "views": 5145,
      "favorites": 33,
      "source": "",
      "purity": "sfw",
      "category": "general",
      "dimension_x": 1920,
      "dimension_y": 1080,
      "resolution": "1920x1080",
      "ratio": "1.78",
      "file_size": 418851,
      "file_type": "image/jpeg",
      "created_at": "2014-11-05 10:36:12",
      "colors": ["#424153", "#333399", "#000000", "#999999", "#abbcda"],
      "path": "https://w.wallhaven.cc/full/0w/wallhaven-0w1xdp.jpg",
      "thumbs": {
        "large": "https://th.wallhaven.cc/lg/0w/0w1xdp.jpg",
        "original": "https://th.wallhaven.cc/orig/0w/0w1xdp.jpg",
        "small": "https://th.wallhaven.cc/small/0w/0w1xdp.jpg"
      }
    },
    {
      "id": "43l7wv",
      "url": "https://wallhaven.cc/w/43l7wv",
      "short_url": "https://whvn.cc/43l7wv",
      "views": 5447,
      "favorites": 13,
      "source": "",
      "purity": "sfw",
      "category": "general",
      "dimension_x": 1920,
      "dimension_y": 1080,
      "resolution": "1920x1080",
      "ratio": "1.78",
      "file_size": 322183,
      "file_type": "image/jpeg",
      "created_at": "2014-10-12 21:04:38",
      "colors": ["#424153", "#000000", "#999999", "#663300", "#996633"],
      "path": "https://w.wallhaven.cc/full/43/wallhaven-43l7wv.jpg",
      "thumbs": {
        "large": "https://th.wallhaven.cc/lg/43/43l7wv.jpg",
        "original": "https://th.wallhaven.cc/orig/43/43l7wv.jpg",
        "small": "https://th.wallhaven.cc/small/43/43l7wv.jpg"
      }
    },
    {
      "id": "nmxd7k",
      "url": "https://wallhaven.cc/w/nmxd7k",
      "short_url": "https://whvn.cc/nmxd7k",
      "views": 2296,
      "favorites": 9,
      "source": "",
      "purity": "sfw",
      "category": "anime",
      "dimension_x": 1920,
      "dimension_y": 1080,
      "resolution": "1920x1080",
      "ratio": "1.78",
      "file_size": 647781,
      "file_type": "image/png",
      "created_at": "2015-12-21 23:55:24",
      "colors": ["#424153", "#000000", "#993399", "#663399", "#fdadc7"],
      "path": "https://w.wallhaven.cc/full/nm/wallhaven-nmxd7k.png",
      "thumbs": {
        "large": "https://th.wallhaven.cc/lg/nm/nmxd7k.jpg",
        "original": "https://th.wallhaven.cc/orig/nm/nmxd7k.jpg",
        "small": "https://th.wallhaven.cc/small/nm/nmxd7k.jpg"
      }
    },
    {
      "id": "ym3v5g",
      "url": "https://wallhaven.cc/w/ym3v5g",
      "short_url": "https://whvn.cc/ym3v5g",
      "views": 5476,
      "favorites": 60,
      "source": "",
      "purity": "sfw",
      "category": "general",
      "dimension_x": 1920,
      "dimension_y": 1080,
      "resolution": "1920x1080",
      "ratio": "1.78",
      "file_size": 1339230,
      "file_type": "image/jpeg",
      "created_at": "2019-12-31 14:29:56",
      "colors": ["#000000", "#424153", "#660000", "#990000", "#996633"],
      "path": "https://w.wallhaven.cc/full/ym/wallhaven-ym3v5g.jpg",
      "thumbs": {
        "large": "https://th.wallhaven.cc/lg/ym/ym3v5g.jpg",
        "original": "https://th.wallhaven.cc/orig/ym/ym3v5g.jpg",
        "small": "https://th.wallhaven.cc/small/ym/ym3v5g.jpg"
      }
    },
    {
      "id": "01dodw",
      "url": "https://wallhaven.cc/w/01dodw",
      "short_url": "https://whvn.cc/01dodw",
      "views": 225566,
      "favorites": 80,
      "source": "",
      "purity": "sfw",
      "category": "general",
      "dimension_x": 3840,
      "dimension_y": 2160,
      "resolution": "3840x2160",
      "ratio": "1.78",
      "file_size": 3619126,
      "file_type": "image/jpeg",
      "created_at": "2014-11-19 17:49:50",
      "colors": ["#996633", "#000000", "#663300", "#424153", "#999999"],
      "path": "https://w.wallhaven.cc/full/01/wallhaven-01dodw.jpg",
      "thumbs": {
        "large": "https://th.wallhaven.cc/lg/01/01dodw.jpg",
        "original": "https://th.wallhaven.cc/orig/01/01dodw.jpg",
        "small": "https://th.wallhaven.cc/small/01/01dodw.jpg"
      }
    },
    {
      "id": "od2zw9",
      "url": "https://wallhaven.cc/w/od2zw9",
      "short_url": "https://whvn.cc/od2zw9",
      "views": 7356,
      "favorites": 22,
      "source": "",
      "purity": "sfw",
      "category": "general",
      "dimension_x": 5000,
      "dimension_y": 2812,
      "resolution": "5000x2812",
      "ratio": "1.78",
      "file_size": 2205596,
      "file_type": "image/jpeg",
      "created_at": "2016-12-27 08:02:35",
      "colors": ["#000000", "#424153", "#996633", "#999999", "#e7d8b1"],
      "path": "https://w.wallhaven.cc/full/od/wallhaven-od2zw9.jpg",
      "thumbs": {
        "large": "https://th.wallhaven.cc/lg/od/od2zw9.jpg",
        "original": "https://th.wallhaven.cc/orig/od/od2zw9.jpg",
        "small": "https://th.wallhaven.cc/small/od/od2zw9.jpg"
      }
    },
    {
      "id": "49zr38",
      "url": "https://wallhaven.cc/w/49zr38",
      "short_url": "https://whvn.cc/49zr38",
      "views": 1539,
      "favorites": 6,
      "source": "",
      "purity": "sfw",
      "category": "people",
      "dimension_x": 1920,
      "dimension_y": 1080,
      "resolution": "1920x1080",
      "ratio": "1.78",
      "file_size": 455135,
      "file_type": "image/jpeg",
      "created_at": "2014-11-04 19:29:27",
      "colors": ["#cccccc", "#000000", "#999999", "#424153", "#ffffff"],
      "path": "https://w.wallhaven.cc/full/49/wallhaven-49zr38.jpg",
      "thumbs": {
        "large": "https://th.wallhaven.cc/lg/49/49zr38.jpg",
        "original": "https://th.wallhaven.cc/orig/49/49zr38.jpg",
        "small": "https://th.wallhaven.cc/small/49/49zr38.jpg"
      }
    },
    {
      "id": "d63e13",
      "url": "https://wallhaven.cc/w/d63e13",
      "short_url": "https://whvn.cc/d63e13",
      "views": 13119,
      "favorites": 29,
      "source": "",
      "purity": "sfw",
      "category": "general",
      "dimension_x": 3840,
      "dimension_y": 2160,
      "resolution": "3840x2160",
      "ratio": "1.78",
      "file_size": 5294918,
      "file_type": "image/png",
      "created_at": "2023-03-13 23:56:58",
      "colors": ["#000000", "#424153", "#333399", "#999999", "#663399"],
      "path": "https://w.wallhaven.cc/full/d6/wallhaven-d63e13.png",
      "thumbs": {
        "large": "https://th.wallhaven.cc/lg/d6/d63e13.jpg",
        "original": "https://th.wallhaven.cc/orig/d6/d63e13.jpg",
        "small": "https://th.wallhaven.cc/small/d6/d63e13.jpg"
      }
    },
    {
      "id": "r2jw17",
      "url": "https://wallhaven.cc/w/r2jw17",
      "short_url": "https://whvn.cc/r2jw17",
      "views": 1770,
      "favorites": 8,
      "source": "",
      "purity": "sfw",
      "category": "general",
      "dimension_x": 1920,
      "dimension_y": 1080,
      "resolution": "1920x1080",
      "ratio": "1.78",
      "file_size": 464720,
      "file_type": "image/jpeg",
      "created_at": "2019-07-19 22:23:50",
      "colors": ["#000000", "#424153", "#999999", "#cccccc", "#abbcda"],
      "path": "https://w.wallhaven.cc/full/r2/wallhaven-r2jw17.jpg",
      "thumbs": {
        "large": "https://th.wallhaven.cc/lg/r2/r2jw17.jpg",
        "original": "https://th.wallhaven.cc/orig/r2/r2jw17.jpg",
        "small": "https://th.wallhaven.cc/small/r2/r2jw17.jpg"
      }
    },
    {
      "id": "j8xmrp",
      "url": "https://wallhaven.cc/w/j8xmrp",
      "short_url": "https://whvn.cc/j8xmrp",
      "views": 2950,
      "favorites": 9,
      "source": "",
      "purity": "sfw",
      "category": "anime",
      "dimension_x": 1920,
      "dimension_y": 1080,
      "resolution": "1920x1080",
      "ratio": "1.78",
      "file_size": 624475,
      "file_type": "image/jpeg",
      "created_at": "2016-06-24 09:03:56",
      "colors": ["#999999", "#424153", "#000000", "#cccccc", "#996633"],
      "path": "https://w.wallhaven.cc/full/j8/wallhaven-j8xmrp.jpg",
      "thumbs": {
        "large": "https://th.wallhaven.cc/lg/j8/j8xmrp.jpg",
        "original": "https://th.wallhaven.cc/orig/j8/j8xmrp.jpg",
        "small": "https://th.wallhaven.cc/small/j8/j8xmrp.jpg"
      }
    },
    {
      "id": "yxggyl",
      "url": "https://wallhaven.cc/w/yxggyl",
      "short_url": "https://whvn.cc/yxggyl",
      "views": 1752,
      "favorites": 9,
      "source": "",
      "purity": "sfw",
      "category": "general",
      "dimension_x": 1920,
      "dimension_y": 1080,
      "resolution": "1920x1080",
      "ratio": "1.78",
      "file_size": 4291426,
      "file_type": "image/png",
      "created_at": "2023-05-23 06:11:23",
      "colors": ["#424153", "#999999", "#000000", "#996633", "#cccccc"],
      "path": "https://w.wallhaven.cc/full/yx/wallhaven-yxggyl.png",
      "thumbs": {
        "large": "https://th.wallhaven.cc/lg/yx/yxggyl.jpg",
        "original": "https://th.wallhaven.cc/orig/yx/yxggyl.jpg",
        "small": "https://th.wallhaven.cc/small/yx/yxggyl.jpg"
      }
    },
    {
      "id": "395jqy",
      "url": "https://wallhaven.cc/w/395jqy",
      "short_url": "https://whvn.cc/395jqy",
      "views": 1423,
      "favorites": 3,
      "source": "",
      "purity": "sfw",
      "category": "general",
      "dimension_x": 1920,
      "dimension_y": 1080,
      "resolution": "1920x1080",
      "ratio": "1.78",
      "file_size": 955919,
      "file_type": "image/jpeg",
      "created_at": "2019-06-19 11:04:30",
      "colors": ["#000000", "#424153", "#999999", "#abbcda", "#cccccc"],
      "path": "https://w.wallhaven.cc/full/39/wallhaven-395jqy.jpg",
      "thumbs": {
        "large": "https://th.wallhaven.cc/lg/39/395jqy.jpg",
        "original": "https://th.wallhaven.cc/orig/39/395jqy.jpg",
        "small": "https://th.wallhaven.cc/small/39/395jqy.jpg"
      }
    },
    {
      "id": "kwyjwm",
      "url": "https://wallhaven.cc/w/kwyjwm",
      "short_url": "https://whvn.cc/kwyjwm",
      "views": 2594,
      "favorites": 4,
      "source": "",
      "purity": "sfw",
      "category": "general",
      "dimension_x": 1920,
      "dimension_y": 1080,
      "resolution": "1920x1080",
      "ratio": "1.78",
      "file_size": 3481280,
      "file_type": "image/png",
      "created_at": "2020-08-11 21:13:23",
      "colors": ["#424153", "#ffffff", "#000000", "#abbcda", "#66cccc"],
      "path": "https://w.wallhaven.cc/full/kw/wallhaven-kwyjwm.png",
      "thumbs": {
        "large": "https://th.wallhaven.cc/lg/kw/kwyjwm.jpg",
        "original": "https://th.wallhaven.cc/orig/kw/kwyjwm.jpg",
        "small": "https://th.wallhaven.cc/small/kw/kwyjwm.jpg"
      }
    },
    {
      "id": "96w8rd",
      "url": "https://wallhaven.cc/w/96w8rd",
      "short_url": "https://whvn.cc/96w8rd",
      "views": 10982,
      "favorites": 111,
      "source": "https://www.artstation.com/artwork/4b0wBY",
      "purity": "sfw",
      "category": "general",
      "dimension_x": 3000,
      "dimension_y": 1687,
      "resolution": "3000x1687",
      "ratio": "1.78",
      "file_size": 955010,
      "file_type": "image/jpeg",
      "created_at": "2020-03-04 11:29:52",
      "colors": ["#424153", "#000000", "#999999", "#996633", "#336600"],
      "path": "https://w.wallhaven.cc/full/96/wallhaven-96w8rd.jpg",
      "thumbs": {
        "large": "https://th.wallhaven.cc/lg/96/96w8rd.jpg",
        "original": "https://th.wallhaven.cc/orig/96/96w8rd.jpg",
        "small": "https://th.wallhaven.cc/small/96/96w8rd.jpg"
      }
    },
    {
      "id": "m3lvo9",
      "url": "https://wallhaven.cc/w/m3lvo9",
      "short_url": "https://whvn.cc/m3lvo9",
      "views": 1025,
      "favorites": 15,
      "source": "",
      "purity": "sfw",
      "category": "general",
      "dimension_x": 1920,
      "dimension_y": 1080,
      "resolution": "1920x1080",
      "ratio": "1.78",
      "file_size": 374812,
      "file_type": "image/jpeg",
      "created_at": "2023-02-16 21:41:24",
      "colors": ["#000000", "#424153", "#cccccc", "#999999", "#abbcda"],
      "path": "https://w.wallhaven.cc/full/m3/wallhaven-m3lvo9.jpg",
      "thumbs": {
        "large": "https://th.wallhaven.cc/lg/m3/m3lvo9.jpg",
        "original": "https://th.wallhaven.cc/orig/m3/m3lvo9.jpg",
        "small": "https://th.wallhaven.cc/small/m3/m3lvo9.jpg"
      }
    },
    {
      "id": "6o21wq",
      "url": "https://wallhaven.cc/w/6o21wq",
      "short_url": "https://whvn.cc/6o21wq",
      "views": 1182,
      "favorites": 12,
      "source": "",
      "purity": "sfw",
      "category": "general",
      "dimension_x": 1920,
      "dimension_y": 1080,
      "resolution": "1920x1080",
      "ratio": "1.78",
      "file_size": 363835,
      "file_type": "image/jpeg",
      "created_at": "2021-08-13 09:54:30",
      "colors": ["#000000", "#424153", "#996633", "#999999", "#663300"],
      "path": "https://w.wallhaven.cc/full/6o/wallhaven-6o21wq.jpg",
      "thumbs": {
        "large": "https://th.wallhaven.cc/lg/6o/6o21wq.jpg",
        "original": "https://th.wallhaven.cc/orig/6o/6o21wq.jpg",
        "small": "https://th.wallhaven.cc/small/6o/6o21wq.jpg"
      }
    },
    {
      "id": "5de283",
      "url": "https://wallhaven.cc/w/5de283",
      "short_url": "https://whvn.cc/5de283",
      "views": 2232,
      "favorites": 5,
      "source": "",
      "purity": "sfw",
      "category": "general",
      "dimension_x": 3840,
      "dimension_y": 2160,
      "resolution": "3840x2160",
      "ratio": "1.78",
      "file_size": 10068748,
      "file_type": "image/png",
      "created_at": "2018-03-17 23:52:42",
      "colors": ["#424153", "#999999", "#000000", "#333399", "#663399"],
      "path": "https://w.wallhaven.cc/full/5d/wallhaven-5de283.png",
      "thumbs": {
        "large": "https://th.wallhaven.cc/lg/5d/5de283.jpg",
        "original": "https://th.wallhaven.cc/orig/5d/5de283.jpg",
        "small": "https://th.wallhaven.cc/small/5d/5de283.jpg"
      }
    },
    {
      "id": "0wrpd7",
      "url": "https://wallhaven.cc/w/0wrpd7",
      "short_url": "https://whvn.cc/0wrpd7",
      "views": 3535,
      "favorites": 29,
      "source": "",
      "purity": "sfw",
      "category": "general",
      "dimension_x": 1920,
      "dimension_y": 1080,
      "resolution": "1920x1080",
      "ratio": "1.78",
      "file_size": 638346,
      "file_type": "image/jpeg",
      "created_at": "2015-06-16 11:53:04",
      "colors": ["#424153", "#996633", "#663300", "#000000", "#999999"],
      "path": "https://w.wallhaven.cc/full/0w/wallhaven-0wrpd7.jpg",
      "thumbs": {
        "large": "https://th.wallhaven.cc/lg/0w/0wrpd7.jpg",
        "original": "https://th.wallhaven.cc/orig/0w/0wrpd7.jpg",
        "small": "https://th.wallhaven.cc/small/0w/0wrpd7.jpg"
      }
    },
    {
      "id": "wqe2jr",
      "url": "https://wallhaven.cc/w/wqe2jr",
      "short_url": "https://whvn.cc/wqe2jr",
      "views": 9948,
      "favorites": 117,
      "source": "https://www.pixiv.net/en/artworks/88529449",
      "purity": "sfw",
      "category": "anime",
      "dimension_x": 1920,
      "dimension_y": 1080,
      "resolution": "1920x1080",
      "ratio": "1.78",
      "file_size": 3208851,
      "file_type": "image/png",
      "created_at": "2021-04-07 20:14:04",
      "colors": ["#000000", "#ffffff", "#999999", "#424153", "#cccccc"],
      "path": "https://w.wallhaven.cc/full/wq/wallhaven-wqe2jr.png",
      "thumbs": {
        "large": "https://th.wallhaven.cc/lg/wq/wqe2jr.jpg",
        "original": "https://th.wallhaven.cc/orig/wq/wqe2jr.jpg",
        "small": "https://th.wallhaven.cc/small/wq/wqe2jr.jpg"
      }
    }
  ],
  "meta": {
    "current_page": 1,
    "last_page": 5490,
    "per_page": 24,
    "total": 131756,
    "query": null,
    "seed": "XChvRa"
  }
}
